{
  "project_info": {
    "project_number": "668564455726",
    "firebase_url": "https://istudiocafe-5976e.firebaseio.com",
    "project_id": "istudiocafe-5976e",
    "storage_bucket": "istudiocafe-5976e.appspot.com"
  },
  "client": [
    {
      "client_info": {
        "mobilesdk_app_id": "1:668564455726:android:2c6845ed38eac2f4347abf",
        "android_client_info": {
          "package_name": "vn.mediatech.istudiocafe"
        }
      },
      "oauth_client": [
        {
          "client_id": "668564455726-kqlpgs29muqhdokdj4mo0b8monmgl2f1.apps.googleusercontent.com",
          "client_type": 3
        }
      ],
      "api_key": [
        {
          "current_key": "AIzaSyD56Tg7fN52vQNY2b7z6ktq9KQx36HRH1k"
        }
      ],
      "services": {
        "appinvite_service": {
          "other_platform_oauth_client": [
            {
              "client_id": "668564455726-kqlpgs29muqhdokdj4mo0b8monmgl2f1.apps.googleusercontent.com",
              "client_type": 3
            }
          ]
        }
      }
    }
  ],
  "configuration_version": "1"
}